<?xml version="1.0" encoding="utf-8"?>
<!-- Generator: Adobe Illustrator 16.0.0, SVG Export Plug-In . SVG Version: 6.00 Build 0)  -->
<!DOCTYPE svg PUBLIC "-//W3C//DTD SVG 1.1//EN" "http://www.w3.org/Graphics/SVG/1.1/DTD/svg11.dtd">
<svg version="1.1" xmlns="http://www.w3.org/2000/svg" xmlns:xlink="http://www.w3.org/1999/xlink" x="0px" y="0px" width="32px"
	 height="32px" viewBox="0 0 32 32" enable-background="new 0 0 32 32" xml:space="preserve">
<g id="Layer_2" display="none">
	<rect display="inline" width="32" height="32"/>
</g>
<g id="Layer_3">
	
		<polygon fill-rule="evenodd" clip-rule="evenodd" fill="#BE1E2D" stroke="#FFFFFF" stroke-width="0.5" stroke-miterlimit="10" points="
		0.352,0.407 0.352,22.305 16.925,31.86 31.7,22.305 31.7,0.407 	"/>
	<g>
		<path fill-rule="evenodd" clip-rule="evenodd" fill="#FFFFFF" d="M15.771,12.774c-1.912,2.667-3.263,5.488-3.81,8.657
			c-0.202,1.17-1.176,0.766-1.837,0.698c-0.924-0.088-0.367-0.816-0.255-1.16c0.967-2.988,2.525-5.642,4.708-7.916
			C14.832,12.789,15.069,12.448,15.771,12.774z"/>
		<path fill-rule="evenodd" clip-rule="evenodd" fill="#FFFFFF" d="M18.017,12.518c0.204,0.177,0.455,0.364,0.669,0.59
			c0.946,1.018,1.877,2.054,2.829,3.069c0.603,0.646,0.829,1.403,0.077,1.964c-0.688,0.519-1.298,0.071-1.692-0.627
			c-0.752-1.319-1.519-2.63-2.266-3.949C17.388,13.125,17.322,12.718,18.017,12.518z"/>
		<path fill-rule="evenodd" clip-rule="evenodd" fill="#FFFFFF" d="M16.587,9.463c-0.805-1.801-0.73-3.721-1.01-5.578
			c-0.1-0.644,0.255-1.117,0.967-1.145c0.8-0.03,1.26,0.472,1.134,1.188C17.354,5.762,17.548,7.692,16.587,9.463z"/>
		<path fill-rule="evenodd" clip-rule="evenodd" fill="#FFFFFF" d="M13.96,10.993c-1.461-0.328-2.991-0.682-4.526-1.01
			C8.688,9.823,8.294,9.377,8.498,8.652C8.7,7.934,9.272,7.688,9.984,7.997c1.496,0.651,2.981,1.328,4.471,1.995
			c0.291,0.131,0.612,0.29,0.521,0.667C14.845,11.202,14.382,10.956,13.96,10.993z"/>
		<path fill-rule="evenodd" clip-rule="evenodd" fill="#FFFFFF" d="M19.185,11.021c-0.422-0.041-0.8,0.089-0.896-0.348
			c-0.086-0.394,0.219-0.539,0.512-0.676c1.437-0.655,2.875-1.315,4.313-1.971c0.675-0.309,1.28-0.233,1.568,0.505
			c0.286,0.73-0.068,1.246-0.804,1.422C22.28,10.342,20.674,10.687,19.185,11.021z"/>
		<path fill-rule="evenodd" clip-rule="evenodd" fill="#FFFFFF" d="M13.768,12.233c-0.738,0.614-1.225,1.775-2.445,1.168
			c-0.29-0.143-0.444-0.54-0.243-0.811C11.804,11.625,12.776,11.903,13.768,12.233z"/>
		<path fill-rule="evenodd" clip-rule="evenodd" fill="#FFFFFF" d="M13.163,4.888c-0.019,0.714-0.403,1.084-1.062,1.071
			c-0.675-0.011-1.036-0.461-1.005-1.112c0.026-0.551,0.352-0.936,0.96-0.95C12.735,3.885,13.094,4.245,13.163,4.888z"/>
		<path fill-rule="evenodd" clip-rule="evenodd" fill="#FFFFFF" d="M19.185,12.07c1.276-0.132,2.269-0.493,2.946,0.616
			c0.185,0.306,0,0.724-0.284,0.809C20.663,13.838,20.078,13,19.185,12.07z"/>
		<path fill-rule="evenodd" clip-rule="evenodd" fill="#FFFFFF" d="M23.987,12.687c0.682,0.07,1.073,0.413,1.032,1.111
			c-0.033,0.584-0.4,0.969-0.957,1.012c-0.678,0.054-1.096-0.415-1.133-1.035C22.885,13.121,23.332,12.751,23.987,12.687z"/>
		<path fill-rule="evenodd" clip-rule="evenodd" fill="#FFFFFF" d="M17.605,19.038c-0.106,0.66-0.494,1.062-1.14,1.031
			c-0.668-0.03-0.998-0.479-0.936-1.153c0.055-0.59,0.398-0.896,0.993-0.913C17.241,17.981,17.506,18.431,17.605,19.038z"/>
		<path fill-rule="evenodd" clip-rule="evenodd" fill="#FFFFFF" d="M21.372,6.08c-0.792-0.043-1.199-0.426-1.18-1.081
			c0.02-0.657,0.481-1.053,1.133-1.032c0.553,0.019,0.927,0.396,0.962,0.982C22.326,5.646,21.896,5.962,21.372,6.08z"/>
		<path fill-rule="evenodd" clip-rule="evenodd" fill="#FFFFFF" d="M10.249,13.576c-0.153,0.931-0.67,1.044-1.286,0.975
			c-0.634-0.07-0.822-0.524-0.787-1.066c0.045-0.707,0.51-0.933,1.167-0.892C10.108,12.642,10.176,13.193,10.249,13.576z"/>
		<path fill-rule="evenodd" clip-rule="evenodd" fill="#FFFFFF" d="M16.629,14.277c0.398,0.863,1.163,1.658,0.453,2.602
			c-0.255,0.341-0.73,0.366-0.966-0.022C15.543,15.908,16.083,15.094,16.629,14.277z"/>
		<path fill-rule="evenodd" clip-rule="evenodd" fill="#FFFFFF" d="M15.304,9.002c-1.447-0.441-2.206-0.903-2.376-1.952
			c-0.056-0.347,0.304-0.586,0.633-0.546C14.83,6.649,14.638,7.803,15.304,9.002z"/>
		<path fill-rule="evenodd" clip-rule="evenodd" fill="#FFFFFF" d="M19.517,6.483c0.493,0.043,0.896,0.185,0.837,0.661
			c-0.117,0.936-0.92,1.305-1.635,1.68c-0.186,0.095-0.553-0.136-0.438-0.442C18.554,7.648,18.604,6.735,19.517,6.483z"/>
	</g>
</g>
<g id="Layer_1">
</g>
</svg>
