<?xml version="1.0" encoding="utf-8"?>
<!-- Generator: Adobe Illustrator 16.0.0, SVG Export Plug-In . SVG Version: 6.00 Build 0)  -->
<!DOCTYPE svg PUBLIC "-//W3C//DTD SVG 1.1//EN" "http://www.w3.org/Graphics/SVG/1.1/DTD/svg11.dtd">
<svg version="1.1" xmlns="http://www.w3.org/2000/svg" xmlns:xlink="http://www.w3.org/1999/xlink" x="0px" y="0px" width="32px"
	 height="32px" viewBox="0 0 32 32" enable-background="new 0 0 32 32" xml:space="preserve">
<g id="Layer_2" display="none">
	<rect display="inline" width="32" height="32"/>
</g>
<g id="Layer_3">
	
		<polygon fill-rule="evenodd" clip-rule="evenodd" fill="#27AAE1" stroke="#FFFFFF" stroke-width="0.5" stroke-miterlimit="10" points="
		0.352,0.407 0.352,22.305 16.925,31.86 31.7,22.305 31.7,0.407 	"/>
	<path fill-rule="evenodd" clip-rule="evenodd" fill="#FFFFFF" d="M6.409,13.595c0.114-0.373,0.381-0.632,0.646-0.897
		c2.936-2.932,5.868-5.867,8.802-8.802c0.052-0.052,0.084-0.124,0.126-0.186c0.028,0,0.057,0,0.085,0
		c0.042,0.062,0.075,0.133,0.126,0.186c2.931,2.935,5.866,5.87,8.802,8.802c0.266,0.265,0.532,0.524,0.646,0.897
		c0,0.176,0,0.351,0,0.526c-0.012,0.02-0.028,0.038-0.036,0.06c-0.33,0.944-1.365,1.183-2.069,0.479
		c-0.09-0.088-0.18-0.177-0.304-0.301c0,1.989,0,3.92,0,5.854c-4.815,0-9.612,0-14.43,0c0-1.945,0-3.875,0-5.81
		c-0.024,0.007-0.031,0.007-0.034,0.01c-0.107,0.105-0.214,0.211-0.322,0.315c-0.481,0.462-1.25,0.457-1.701-0.035
		c-0.146-0.161-0.228-0.379-0.339-0.57C6.409,13.945,6.409,13.771,6.409,13.595z M10.015,18.996c1.215,0,2.407,0,3.613,0
		c0-1.602,0-3.189,0-4.78c1.61,0,3.2,0,4.809,0c0,1.603,0,3.19,0,4.78c1.206,0,2.396,0,3.596,0c0.001-0.041,0.005-0.072,0.005-0.104
		c0-1.871,0.002-3.743-0.004-5.615c-0.001-0.08-0.058-0.175-0.116-0.235c-1.919-1.923-3.839-3.844-5.762-5.766
		c-0.042-0.042-0.086-0.081-0.13-0.121c-0.036,0.033-0.055,0.048-0.072,0.065c-1.949,1.948-3.896,3.896-5.841,5.847
		c-0.059,0.06-0.093,0.173-0.093,0.263c-0.006,1.821-0.005,3.644-0.005,5.466C10.015,18.857,10.015,18.92,10.015,18.996z"/>
</g>
<g id="Layer_4">
	
		<polygon fill-rule="evenodd" clip-rule="evenodd" fill="#65BC47" stroke="#FFFFFF" stroke-width="0.5" stroke-miterlimit="10" points="
		0.352,0.407 0.352,22.305 16.925,31.86 31.7,22.305 31.7,0.407 	"/>
	<g>
		<path fill-rule="evenodd" clip-rule="evenodd" fill="#FFFFFF" d="M23.43,3.06c0.462,0.106,0.781,0.422,1.092,0.75
			c0.156,0.166,0.323,0.321,0.48,0.487c0.473,0.497,0.508,1.261,0.084,1.798c-0.048,0.06-0.101,0.115-0.154,0.168
			c-0.457,0.46-0.916,0.918-1.364,1.368c-0.92-0.919-1.828-1.828-2.748-2.747c-0.002,0.003,0.005-0.018,0.02-0.033
			c0.476-0.477,0.937-0.968,1.436-1.419c0.189-0.172,0.463-0.251,0.698-0.373C23.125,3.06,23.278,3.06,23.43,3.06z"/>
		<path fill-rule="evenodd" clip-rule="evenodd" fill="#FFFFFF" d="M7.578,20.529c0.198-0.486,0.398-0.971,0.592-1.457
			c0.318-0.799,0.632-1.6,0.948-2.399c0.019-0.047,0.04-0.095,0.053-0.126c0.905,0.908,1.81,1.81,2.716,2.72
			c-0.015,0.008-0.057,0.031-0.103,0.049c-1.244,0.494-2.489,0.986-3.734,1.479c-0.161,0.064-0.321,0.119-0.473-0.02
			C7.578,20.693,7.578,20.611,7.578,20.529z"/>
		<path fill-rule="evenodd" clip-rule="evenodd" fill="#FFFFFF" d="M13.292,17.855c-0.898-0.9-1.807-1.811-2.705-2.711
			c2.939-2.939,5.886-5.887,8.821-8.822c0.896,0.898,1.807,1.812,2.703,2.711C19.187,11.96,16.235,14.912,13.292,17.855z"/>
	</g>
</g>
<g id="Layer_4_copy">
	
		<polygon fill-rule="evenodd" clip-rule="evenodd" fill="#BC228C" stroke="#FFFFFF" stroke-width="0.5" stroke-miterlimit="10" points="
		0.352,0.407 0.352,22.305 16.925,31.86 31.7,22.305 31.7,0.407 	"/>
	<g>
		<g>
			<g>
				<path fill-rule="evenodd" clip-rule="evenodd" fill="#FFFFFF" d="M14.956,11.406c-0.481-3.579-3.649-6.078-7.215-5.674
					C7.363,5.774,6.999,5.851,6.648,5.951c0.083,0.515,0.07,1.062,0.059,1.538C6.683,8.53,6.669,9.568,6.669,10.61
					c0,2.571,0.084,5.14,0.101,7.71c1.746,0.479,3.685,0.252,5.298-0.855c0.292-0.199,0.35-0.301,0.105-0.624
					c-0.408-0.541-0.929-0.934-1.441-1.351c-0.909-0.739-1.532-1.655-1.741-2.828c-0.11-0.62-0.041-0.716,0.575-0.719
					c0.802-0.004,1.603-0.001,2.404-0.001c0.836,0,1.673-0.003,2.509,0.002C14.857,11.947,15.011,11.816,14.956,11.406z
					 M11.185,10.889c-0.03,0.21-0.192,0.408-0.348,0.414c-0.226,0.008-0.257,0.04-0.483,0.04c0,0.001-0.209,0.012-0.209,0.013
					c-0.209,0-0.38-0.042-0.589-0.052c-0.112-0.005-0.318-0.142-0.35-0.301c-0.015-0.073,0.113-0.411,0.18-0.482
					c0.368-0.388,1.008-0.898,1.688-0.159C11.183,10.48,11.211,10.708,11.185,10.889z"/>
				<rect x="6.648" y="5.951" fill-rule="evenodd" clip-rule="evenodd" fill="#FFFFFF" width="0.122" height="12.369"/>
			</g>
			<rect x="8.951" y="9.67" fill-rule="evenodd" clip-rule="evenodd" fill="#FFFFFF" width="2.477" height="1.958"/>
			<path fill-rule="evenodd" clip-rule="evenodd" fill="#BC228C" d="M9.581,11.004C9.06,10.992,8.647,10.56,8.66,10.039l0,0
				c0.012-0.521,0.444-0.933,0.965-0.921l0.583,0.014c0.521,0.012,0.933,0.445,0.921,0.965l0,0
				c-0.013,0.521-0.444,0.933-0.965,0.921L9.581,11.004z"/>
		</g>
		<g>
			<path fill-rule="evenodd" clip-rule="evenodd" fill="#FFFFFF" d="M18.246,11.876c0.836-0.006,1.672-0.002,2.509-0.002
				c0.801,0,1.603-0.003,2.404,0.001c0.616,0.003,0.685,0.1,0.574,0.719c-0.208,1.173-0.832,2.089-1.74,2.828
				c-0.511,0.417-1.032,0.809-1.441,1.35c-0.244,0.323-0.185,0.425,0.106,0.624c1.613,1.106,3.552,1.334,5.298,0.855
				c0.017-2.57,0.102-5.14,0.102-7.71c0-1.042-0.015-2.08-0.038-3.121c-0.011-0.477-0.024-1.023,0.059-1.538
				c-0.352-0.101-0.714-0.177-1.092-0.22c-3.566-0.403-6.735,2.095-7.216,5.674C17.715,11.747,17.869,11.879,18.246,11.876z
				 M21.653,10.293c0.679-0.74,1.319-0.229,1.687,0.159c0.068,0.071,0.195,0.409,0.182,0.482c-0.033,0.159-0.239,0.295-0.352,0.301
				c-0.209,0.01-0.379,0.052-0.589,0.052c0-0.001-0.208-0.012-0.208-0.013c-0.228,0-0.258-0.031-0.484-0.039
				c-0.155-0.006-0.318-0.204-0.348-0.414C21.515,10.64,21.544,10.412,21.653,10.293z"/>
			<rect x="25.956" y="5.871" fill-rule="evenodd" clip-rule="evenodd" fill="#FFFFFF" width="0.122" height="12.37"/>
			<path fill-rule="evenodd" clip-rule="evenodd" fill="#FFFFFF" d="M24.18,10.702c0,0.541-0.438,0.979-0.979,0.979h-1.109
				c-0.541,0-0.979-0.438-0.979-0.979l0,0c0-0.541,0.438-0.979,0.979-0.979H23.2C23.741,9.723,24.18,10.161,24.18,10.702
				L24.18,10.702z"/>
			<path fill-rule="evenodd" clip-rule="evenodd" fill="#BC228C" d="M22.332,11.057c-0.521-0.012-0.934-0.445-0.921-0.965l0,0
				c0.012-0.521,0.444-0.934,0.965-0.921l0.584,0.014c0.52,0.012,0.933,0.444,0.92,0.965l0,0c-0.012,0.521-0.444,0.933-0.965,0.92
				L22.332,11.057z"/>
		</g>
		<g>
			<path fill-rule="evenodd" clip-rule="evenodd" fill="#FFFFFF" d="M15.367,16.936c-0.068,0.113-0.12,0.198-0.19,0.312
				c-0.267-0.458-0.524-0.898-0.796-1.366c0.527,0,1.033,0,1.571,0c-0.056,0.117-0.105,0.22-0.156,0.324
				c0.699,0.602,2.136,0.389,2.56-1.025c0.091,0.555-0.342,1.301-0.979,1.667C16.731,17.217,16.062,17.198,15.367,16.936z"/>
			<path fill-rule="evenodd" clip-rule="evenodd" fill="#FFFFFF" d="M18.028,14.225c-0.563,0-1.061,0-1.597,0
				c0.065-0.126,0.122-0.234,0.177-0.34c-0.868-0.715-1.965-0.26-2.58,1.059c-0.063-1.056,1.111-2.484,3.002-1.808
				c0.06-0.085,0.121-0.175,0.204-0.293C17.498,13.301,17.752,13.744,18.028,14.225z"/>
		</g>
	</g>
</g>
<g id="Layer_4_copy_2">
	
		<rect x="0.079" fill-rule="evenodd" clip-rule="evenodd" fill="#2E348A" stroke="#FFFFFF" stroke-width="0.5" stroke-miterlimit="10" width="31.921" height="31.922"/>
	<path fill-rule="evenodd" clip-rule="evenodd" fill="#FFFFFF" d="M16.329,25.994c-5.51-0.028-10.005-4.565-9.969-10.065
		c0.036-5.489,4.574-10,10.063-10.001c5.444-0.002,10.016,4.625,9.965,10.087C26.337,21.561,21.839,26.021,16.329,25.994z
		 M16.44,16.883c-1.562,0-3.123-0.013-4.685,0.002c-1.71,0.018-1.936,0.377-1.286,1.986c0.816,2.024,3.162,3.393,5.881,3.373
		c2.566-0.015,4.69-0.88,5.944-3.287c0.075-0.146,0.106-0.316,0.159-0.473c0.364-1.078,0.407-1.703-1.162-1.619
		C17.619,16.892,20.057,16.904,16.44,16.883z M14.485,12.931c0.016-0.79-0.159-1.542-1.098-1.536
		c-0.903,0.005-1.155,0.728-1.148,1.528c0.005,0.735,0.256,1.391,1.062,1.447C14.25,14.436,14.488,13.741,14.485,12.931z
		 M20.25,12.863c-0.02-0.788-0.228-1.515-1.171-1.467c-0.947,0.048-1.052,0.829-1.044,1.59c0.009,0.732,0.249,1.388,1.085,1.388
		C20.062,14.375,20.25,13.652,20.25,12.863z"/>
</g>
</svg>
